<svg width="16" height="16" viewBox="0 0 16 16" fill="none" xmlns="http://www.w3.org/2000/svg">
<circle cx="8" cy="8" r="8" fill="#5FD854"/>
<path d="M10.6899 5.25879C9.69753 6.40789 8.70513 7.54393 7.71273 8.69302C7.49074 8.94112 7.26876 9.20228 7.04677 9.45038C7.0076 9.48956 6.89008 9.60708 6.78561 9.71154C6.6028 9.50261 6.2633 9.26757 6.13272 9.12393C5.8585 8.83666 5.58428 8.53633 5.31007 8.22294C4.64411 7.46558 3.54725 8.5755 4.20014 9.33286C4.77469 9.98576 5.38841 10.7692 6.1066 11.2524C6.89008 11.7747 7.45157 11.3438 7.97388 10.7301C9.26662 9.28063 10.5332 7.8312 11.7999 6.36871C12.4528 5.61135 11.3559 4.48837 10.6899 5.25879Z" fill="white"/>
</svg>
